<svg width="24" height="24" viewBox="0 0 24 24" fill="none" xmlns="http://www.w3.org/2000/svg">
<path fill-rule="evenodd" clip-rule="evenodd" d="M12 2C3.76471 2 2 3.76471 2 12C2 20.2353 3.76471 22 12 22C20.2353 22 22 20.2353 22 12C22 3.76471 20.2353 2 12 2Z" stroke="#4E99DE" stroke-linecap="round" stroke-linejoin="round"/>
<path d="M11.1563 7.32575C11.5493 6.70826 12.4507 6.70825 12.8437 7.32575L18.022 15.4631C18.4456 16.1288 17.9674 17 17.1783 17H6.82167C6.03258 17 5.55437 16.1288 5.97801 15.4631L11.1563 7.32575Z" stroke="#4E99DE" stroke-linecap="round" stroke-linejoin="round"/>
<path opacity="0.66" d="M9 7.5L6.5 4.5" stroke="#4E99DE" stroke-linecap="round" stroke-linejoin="round"/>
<path opacity="0.66" d="M7 10L4.5 8.5" stroke="#4E99DE" stroke-linecap="round" stroke-linejoin="round"/>
<path opacity="0.66" d="M5.5 13L4 12.5" stroke="#4E99DE" stroke-linecap="round" stroke-linejoin="round"/>
<path opacity="0.66" d="M15 7.5L17.5 4.5" stroke="#4E99DE" stroke-linecap="round" stroke-linejoin="round"/>
<path opacity="0.66" d="M17 10L19.5 8.5" stroke="#4E99DE" stroke-linecap="round" stroke-linejoin="round"/>
<path opacity="0.66" d="M18.5 13L20 12.5" stroke="#4E99DE" stroke-linecap="round" stroke-linejoin="round"/>
<path opacity="0.66" d="M14 13C14 13 13.1046 14 12 14C10.8954 14 10 13 10 13C10 13 10.8954 12 12 12C13.1046 12 14 13 14 13Z" stroke="#4E99DE" stroke-linecap="round" stroke-linejoin="round"/>
</svg>
