<svg width="24" height="24" viewBox="0 0 24 24" fill="none" xmlns="http://www.w3.org/2000/svg">
<path opacity="0.55" fill-rule="evenodd" clip-rule="evenodd" d="M4.50024 15C2.85319 15 2.50024 15.5294 2.50024 18C2.50024 20.4706 2.85319 21 4.50024 21C6.1473 21 6.50024 20.4706 6.50024 18C6.50024 15.5294 6.1473 15 4.50024 15Z" stroke="#4E99DE" stroke-linecap="round" stroke-linejoin="round"/>
<path fill-rule="evenodd" clip-rule="evenodd" d="M12.0002 3C9.94142 3 9.50024 4.58824 9.50024 12C9.50024 19.4118 9.94142 21 12.0002 21C14.0591 21 14.5002 19.4118 14.5002 12C14.5002 4.58824 14.0591 3 12.0002 3Z" stroke="#4E99DE" stroke-linecap="round" stroke-linejoin="round"/>
<path opacity="0.66" fill-rule="evenodd" clip-rule="evenodd" d="M19.5002 8C17.8532 8 17.5002 9.14706 17.5002 14.5C17.5002 19.8529 17.8532 21 19.5002 21C21.1473 21 21.5002 19.8529 21.5002 14.5C21.5002 9.14706 21.1473 8 19.5002 8Z" stroke="#4E99DE" stroke-linecap="round" stroke-linejoin="round"/>
</svg>
