<svg width="56" height="56" viewBox="0 0 56 56" fill="none" xmlns="http://www.w3.org/2000/svg">
  <circle cx="28" cy="28" r="28" fill="white"/>
  <circle cx="28" cy="28" r="27.5" stroke="#7EA1CA" stroke-opacity="0.2"/>
  <path d="M35.1412 30.3798H30.3814V35.1395H25.6217V30.3798H20.8588V25.6202H25.6186V20.8605H30.3783V25.6202H35.1381V30.3798H35.1412ZM45 25.6202V20.8605H39.9009V16.1008H35.1412V11H30.3814V16.1008H25.6217V11H20.8588V16.1008H16.0991V20.8605H11V25.6202H16.0991V30.3798H11V35.1395H16.0991V39.8992H20.8588V45H25.6186V39.8992H30.3783V45H35.1381V39.8992H39.8978V35.1395H44.9969V30.3798H39.8978V25.6202H45Z" fill="#8527D4"/>
</svg>
