<svg width="44" height="44" viewBox="0 0 44 44" fill="none" xmlns="http://www.w3.org/2000/svg">
<rect x="18" y="5" width="1" height="1" fill="black"/>
<rect x="19" y="5" width="1" height="1" fill="black"/>
<rect x="17" y="6" width="1" height="1" fill="black"/>
<rect x="18" y="6" width="1" height="1" fill="#DEB2FF"/>
<rect x="19" y="6" width="1" height="1" fill="#C97FFF"/>
<rect x="20" y="6" width="1" height="1" fill="black"/>
<rect x="21" y="6" width="1" height="1" fill="black"/>
<rect x="16" y="7" width="1" height="1" fill="black"/>
<rect x="17" y="7" width="1" height="1" fill="#9164E5"/>
<rect x="18" y="7" width="1" height="1" fill="#C97FFF"/>
<rect x="19" y="7" width="1" height="1" fill="#DEB2FF"/>
<rect x="20" y="7" width="1" height="1" fill="#DEB2FF"/>
<rect x="21" y="7" width="1" height="1" fill="#C97FFF"/>
<rect x="22" y="7" width="1" height="1" fill="black"/>
<rect x="23" y="7" width="1" height="1" fill="black"/>
<rect x="16" y="8" width="1" height="1" fill="black"/>
<rect x="17" y="8" width="1" height="1" fill="#C97FFF"/>
<rect x="18" y="8" width="1" height="1" fill="#C97FFF"/>
<rect x="19" y="8" width="1" height="1" fill="#C97FFF"/>
<rect x="20" y="8" width="1" height="1" fill="#DEB2FF"/>
<rect x="21" y="8" width="1" height="1" fill="#DEB2FF"/>
<rect x="22" y="8" width="1" height="1" fill="#DEB2FF"/>
<rect x="23" y="8" width="1" height="1" fill="#9164E5"/>
<rect x="24" y="8" width="1" height="1" fill="black"/>
<rect x="25" y="8" width="1" height="1" fill="black"/>
<rect x="15" y="9" width="1" height="1" fill="black"/>
<rect x="16" y="9" width="1" height="1" fill="#C97FFF"/>
<rect x="17" y="9" width="1" height="1" fill="#C97FFF"/>
<rect x="18" y="9" width="1" height="1" fill="#C97FFF"/>
<rect x="19" y="9" width="1" height="1" fill="#C97FFF"/>
<rect x="20" y="9" width="1" height="1" fill="#C97FFF"/>
<rect x="21" y="9" width="1" height="1" fill="#DEB2FF"/>
<rect x="22" y="9" width="1" height="1" fill="#DEB2FF"/>
<rect x="23" y="9" width="1" height="1" fill="#DEB2FF"/>
<rect x="24" y="9" width="1" height="1" fill="#C97FFF"/>
<rect x="25" y="9" width="1" height="1" fill="#9164E5"/>
<rect x="26" y="9" width="1" height="1" fill="black"/>
<rect x="27" y="9" width="1" height="1" fill="black"/>
<rect x="14" y="10" width="1" height="1" fill="black"/>
<rect x="15" y="10" width="1" height="1" fill="#9164E5"/>
<rect x="16" y="10" width="1" height="1" fill="#C97FFF"/>
<rect x="17" y="10" width="1" height="1" fill="#C97FFF"/>
<rect x="18" y="10" width="1" height="1" fill="#C97FFF"/>
<rect x="19" y="10" width="1" height="1" fill="#C97FFF"/>
<rect x="20" y="10" width="1" height="1" fill="#C97FFF"/>
<rect x="21" y="10" width="1" height="1" fill="#C97FFF"/>
<rect x="22" y="10" width="1" height="1" fill="#DEB2FF"/>
<rect x="23" y="10" width="1" height="1" fill="#9164E5"/>
<rect x="24" y="10" width="1" height="1" fill="#9164E5"/>
<rect x="25" y="10" width="1" height="1" fill="#C97FFF"/>
<rect x="26" y="10" width="1" height="1" fill="#C97FFF"/>
<rect x="27" y="10" width="1" height="1" fill="#9164E5"/>
<rect x="28" y="10" width="1" height="1" fill="black"/>
<rect x="29" y="10" width="1" height="1" fill="black"/>
<rect x="14" y="11" width="1" height="1" fill="black"/>
<rect x="15" y="11" width="1" height="1" fill="#C97FFF"/>
<rect x="16" y="11" width="1" height="1" fill="#C97FFF"/>
<rect x="17" y="11" width="1" height="1" fill="#C97FFF"/>
<rect x="18" y="11" width="1" height="1" fill="#C97FFF"/>
<rect x="19" y="11" width="1" height="1" fill="#C97FFF"/>
<rect x="20" y="11" width="1" height="1" fill="#C97FFF"/>
<rect x="21" y="11" width="1" height="1" fill="#C97FFF"/>
<rect x="22" y="11" width="1" height="1" fill="#DEB2FF"/>
<rect x="23" y="11" width="1" height="1" fill="#C97FFF"/>
<rect x="24" y="11" width="1" height="1" fill="#9164E5"/>
<rect x="25" y="11" width="1" height="1" fill="#9164E5"/>
<rect x="26" y="11" width="1" height="1" fill="#9164E5"/>
<rect x="27" y="11" width="1" height="1" fill="#C97FFF"/>
<rect x="28" y="11" width="1" height="1" fill="#C97FFF"/>
<rect x="29" y="11" width="1" height="1" fill="black"/>
<rect x="13" y="12" width="1" height="1" fill="black"/>
<rect x="14" y="12" width="1" height="1" fill="#C97FFF"/>
<rect x="15" y="12" width="1" height="1" fill="#C97FFF"/>
<rect x="16" y="12" width="1" height="1" fill="#C97FFF"/>
<rect x="17" y="12" width="1" height="1" fill="#C97FFF"/>
<rect x="18" y="12" width="1" height="1" fill="#C97FFF"/>
<rect x="19" y="12" width="1" height="1" fill="#C97FFF"/>
<rect x="20" y="12" width="1" height="1" fill="#C97FFF"/>
<rect x="21" y="12" width="1" height="1" fill="#C97FFF"/>
<rect x="22" y="12" width="1" height="1" fill="#C97FFF"/>
<rect x="23" y="12" width="1" height="1" fill="#DEB2FF"/>
<rect x="24" y="12" width="1" height="1" fill="#9164E5"/>
<rect x="25" y="12" width="1" height="1" fill="#9164E5"/>
<rect x="26" y="12" width="1" height="1" fill="#9164E5"/>
<rect x="27" y="12" width="1" height="1" fill="#9164E5"/>
<rect x="28" y="12" width="1" height="1" fill="#9164E5"/>
<rect x="29" y="12" width="1" height="1" fill="#9164E5"/>
<rect x="30" y="12" width="1" height="1" fill="black"/>
<rect x="12" y="13" width="1" height="1" fill="black"/>
<rect x="13" y="13" width="1" height="1" fill="#9164E5"/>
<rect x="14" y="13" width="1" height="1" fill="#C97FFF"/>
<rect x="15" y="13" width="1" height="1" fill="#C97FFF"/>
<rect x="16" y="13" width="1" height="1" fill="#C97FFF"/>
<rect x="17" y="13" width="1" height="1" fill="#C97FFF"/>
<rect x="18" y="13" width="1" height="1" fill="#C97FFF"/>
<rect x="19" y="13" width="1" height="1" fill="#C97FFF"/>
<rect x="20" y="13" width="1" height="1" fill="#C97FFF"/>
<rect x="21" y="13" width="1" height="1" fill="#C97FFF"/>
<rect x="22" y="13" width="1" height="1" fill="#C97FFF"/>
<rect x="23" y="13" width="1" height="1" fill="#C97FFF"/>
<rect x="24" y="13" width="1" height="1" fill="#DEB2FF"/>
<rect x="25" y="13" width="1" height="1" fill="#9164E5"/>
<rect x="26" y="13" width="1" height="1" fill="#9164E5"/>
<rect x="27" y="13" width="1" height="1" fill="#9164E5"/>
<rect x="28" y="13" width="1" height="1" fill="#9164E5"/>
<rect x="29" y="13" width="1" height="1" fill="#9164E5"/>
<rect x="30" y="13" width="1" height="1" fill="black"/>
<rect x="12" y="14" width="1" height="1" fill="black"/>
<rect x="13" y="14" width="1" height="1" fill="#C97FFF"/>
<rect x="14" y="14" width="1" height="1" fill="#C97FFF"/>
<rect x="15" y="14" width="1" height="1" fill="#C97FFF"/>
<rect x="16" y="14" width="1" height="1" fill="#C97FFF"/>
<rect x="17" y="14" width="1" height="1" fill="#C97FFF"/>
<rect x="18" y="14" width="1" height="1" fill="#C97FFF"/>
<rect x="19" y="14" width="1" height="1" fill="#C97FFF"/>
<rect x="20" y="14" width="1" height="1" fill="#C97FFF"/>
<rect x="21" y="14" width="1" height="1" fill="#C97FFF"/>
<rect x="22" y="14" width="1" height="1" fill="#C97FFF"/>
<rect x="23" y="14" width="1" height="1" fill="#C97FFF"/>
<rect x="24" y="14" width="1" height="1" fill="#DEB2FF"/>
<rect x="25" y="14" width="1" height="1" fill="#C97FFF"/>
<rect x="26" y="14" width="1" height="1" fill="#9164E5"/>
<rect x="27" y="14" width="1" height="1" fill="#9164E5"/>
<rect x="28" y="14" width="1" height="1" fill="#9164E5"/>
<rect x="29" y="14" width="1" height="1" fill="#9164E5"/>
<rect x="30" y="14" width="1" height="1" fill="#9164E5"/>
<rect x="31" y="14" width="1" height="1" fill="black"/>
<rect x="11" y="15" width="1" height="1" fill="black"/>
<rect x="12" y="15" width="1" height="1" fill="#C97FFF"/>
<rect x="13" y="15" width="1" height="1" fill="#C97FFF"/>
<rect x="14" y="15" width="1" height="1" fill="#C97FFF"/>
<rect x="15" y="15" width="1" height="1" fill="#C97FFF"/>
<rect x="16" y="15" width="1" height="1" fill="#C97FFF"/>
<rect x="17" y="15" width="1" height="1" fill="#C97FFF"/>
<rect x="18" y="15" width="1" height="1" fill="#C97FFF"/>
<rect x="19" y="15" width="1" height="1" fill="#C97FFF"/>
<rect x="20" y="15" width="1" height="1" fill="#C97FFF"/>
<rect x="21" y="15" width="1" height="1" fill="#C97FFF"/>
<rect x="22" y="15" width="1" height="1" fill="#C97FFF"/>
<rect x="23" y="15" width="1" height="1" fill="#C97FFF"/>
<rect x="24" y="15" width="1" height="1" fill="#C97FFF"/>
<rect x="25" y="15" width="1" height="1" fill="#DEB2FF"/>
<rect x="26" y="15" width="1" height="1" fill="#9164E5"/>
<rect x="27" y="15" width="1" height="1" fill="#9164E5"/>
<rect x="28" y="15" width="1" height="1" fill="#9164E5"/>
<rect x="29" y="15" width="1" height="1" fill="#9164E5"/>
<rect x="30" y="15" width="1" height="1" fill="#9164E5"/>
<rect x="31" y="15" width="1" height="1" fill="black"/>
<rect x="10" y="16" width="1" height="1" fill="black"/>
<rect x="11" y="16" width="1" height="1" fill="#9164E5"/>
<rect x="12" y="16" width="1" height="1" fill="#C97FFF"/>
<rect x="13" y="16" width="1" height="1" fill="#C97FFF"/>
<rect x="14" y="16" width="1" height="1" fill="#C97FFF"/>
<rect x="15" y="16" width="1" height="1" fill="#C97FFF"/>
<rect x="16" y="16" width="1" height="1" fill="#C97FFF"/>
<rect x="17" y="16" width="1" height="1" fill="#C97FFF"/>
<rect x="18" y="16" width="1" height="1" fill="#C97FFF"/>
<rect x="19" y="16" width="1" height="1" fill="#C97FFF"/>
<rect x="20" y="16" width="1" height="1" fill="#C97FFF"/>
<rect x="21" y="16" width="1" height="1" fill="#C97FFF"/>
<rect x="22" y="16" width="1" height="1" fill="#C97FFF"/>
<rect x="23" y="16" width="1" height="1" fill="#C97FFF"/>
<rect x="24" y="16" width="1" height="1" fill="#C97FFF"/>
<rect x="25" y="16" width="1" height="1" fill="#C97FFF"/>
<rect x="26" y="16" width="1" height="1" fill="#DEB2FF"/>
<rect x="27" y="16" width="1" height="1" fill="#9164E5"/>
<rect x="28" y="16" width="1" height="1" fill="#9164E5"/>
<rect x="29" y="16" width="1" height="1" fill="#9164E5"/>
<rect x="30" y="16" width="1" height="1" fill="#9164E5"/>
<rect x="31" y="16" width="1" height="1" fill="#9164E5"/>
<rect x="32" y="16" width="1" height="1" fill="black"/>
<rect x="10" y="17" width="1" height="1" fill="black"/>
<rect x="11" y="17" width="1" height="1" fill="#C97FFF"/>
<rect x="12" y="17" width="1" height="1" fill="#C97FFF"/>
<rect x="13" y="17" width="1" height="1" fill="#C97FFF"/>
<rect x="14" y="17" width="1" height="1" fill="#C97FFF"/>
<rect x="15" y="17" width="1" height="1" fill="#C97FFF"/>
<rect x="16" y="17" width="1" height="1" fill="#C97FFF"/>
<rect x="17" y="17" width="1" height="1" fill="#C97FFF"/>
<rect x="18" y="17" width="1" height="1" fill="#C97FFF"/>
<rect x="19" y="17" width="1" height="1" fill="#C97FFF"/>
<rect x="20" y="17" width="1" height="1" fill="#C97FFF"/>
<rect x="21" y="17" width="1" height="1" fill="#C97FFF"/>
<rect x="22" y="17" width="1" height="1" fill="#C97FFF"/>
<rect x="23" y="17" width="1" height="1" fill="#C97FFF"/>
<rect x="24" y="17" width="1" height="1" fill="#C97FFF"/>
<rect x="25" y="17" width="1" height="1" fill="#C97FFF"/>
<rect x="26" y="17" width="1" height="1" fill="#DEB2FF"/>
<rect x="27" y="17" width="1" height="1" fill="#C97FFF"/>
<rect x="28" y="17" width="1" height="1" fill="#9164E5"/>
<rect x="29" y="17" width="1" height="1" fill="#9164E5"/>
<rect x="30" y="17" width="1" height="1" fill="#9164E5"/>
<rect x="31" y="17" width="1" height="1" fill="#9164E5"/>
<rect x="32" y="17" width="1" height="1" fill="black"/>
<rect x="9" y="18" width="1" height="1" fill="black"/>
<rect x="10" y="18" width="1" height="1" fill="#C97FFF"/>
<rect x="11" y="18" width="1" height="1" fill="#C97FFF"/>
<rect x="12" y="18" width="1" height="1" fill="#C97FFF"/>
<rect x="13" y="18" width="1" height="1" fill="#C97FFF"/>
<rect x="14" y="18" width="1" height="1" fill="#C97FFF"/>
<rect x="15" y="18" width="1" height="1" fill="#C97FFF"/>
<rect x="16" y="18" width="1" height="1" fill="#C97FFF"/>
<rect x="17" y="18" width="1" height="1" fill="#C97FFF"/>
<rect x="18" y="18" width="1" height="1" fill="#C97FFF"/>
<rect x="19" y="18" width="1" height="1" fill="#C97FFF"/>
<rect x="20" y="18" width="1" height="1" fill="#C97FFF"/>
<rect x="21" y="18" width="1" height="1" fill="#C97FFF"/>
<rect x="22" y="18" width="1" height="1" fill="#C97FFF"/>
<rect x="23" y="18" width="1" height="1" fill="#C97FFF"/>
<rect x="24" y="18" width="1" height="1" fill="#C97FFF"/>
<rect x="25" y="18" width="1" height="1" fill="#C97FFF"/>
<rect x="26" y="18" width="1" height="1" fill="#C97FFF"/>
<rect x="27" y="18" width="1" height="1" fill="#DEB2FF"/>
<rect x="28" y="18" width="1" height="1" fill="#9164E5"/>
<rect x="29" y="18" width="1" height="1" fill="#9164E5"/>
<rect x="30" y="18" width="1" height="1" fill="#9164E5"/>
<rect x="31" y="18" width="1" height="1" fill="#9164E5"/>
<rect x="32" y="18" width="1" height="1" fill="#9164E5"/>
<rect x="33" y="18" width="1" height="1" fill="black"/>
<rect x="8" y="19" width="1" height="1" fill="black"/>
<rect x="9" y="19" width="1" height="1" fill="#9164E5"/>
<rect x="10" y="19" width="1" height="1" fill="#C97FFF"/>
<rect x="11" y="19" width="1" height="1" fill="#C97FFF"/>
<rect x="12" y="19" width="1" height="1" fill="#C97FFF"/>
<rect x="13" y="19" width="1" height="1" fill="#C97FFF"/>
<rect x="14" y="19" width="1" height="1" fill="#C97FFF"/>
<rect x="15" y="19" width="1" height="1" fill="#C97FFF"/>
<rect x="16" y="19" width="1" height="1" fill="#C97FFF"/>
<rect x="17" y="19" width="1" height="1" fill="#C97FFF"/>
<rect x="18" y="19" width="1" height="1" fill="#C97FFF"/>
<rect x="19" y="19" width="1" height="1" fill="#C97FFF"/>
<rect x="20" y="19" width="1" height="1" fill="#C97FFF"/>
<rect x="21" y="19" width="1" height="1" fill="#C97FFF"/>
<rect x="22" y="19" width="1" height="1" fill="#C97FFF"/>
<rect x="23" y="19" width="1" height="1" fill="#C97FFF"/>
<rect x="24" y="19" width="1" height="1" fill="#C97FFF"/>
<rect x="25" y="19" width="1" height="1" fill="#C97FFF"/>
<rect x="26" y="19" width="1" height="1" fill="#C97FFF"/>
<rect x="27" y="19" width="1" height="1" fill="#C97FFF"/>
<rect x="28" y="19" width="1" height="1" fill="#DEB2FF"/>
<rect x="29" y="19" width="1" height="1" fill="#9164E5"/>
<rect x="30" y="19" width="1" height="1" fill="#9164E5"/>
<rect x="31" y="19" width="1" height="1" fill="#9164E5"/>
<rect x="32" y="19" width="1" height="1" fill="#9164E5"/>
<rect x="33" y="19" width="1" height="1" fill="black"/>
<rect x="8" y="20" width="1" height="1" fill="black"/>
<rect x="9" y="20" width="1" height="1" fill="#C97FFF"/>
<rect x="10" y="20" width="1" height="1" fill="#C97FFF"/>
<rect x="11" y="20" width="1" height="1" fill="#C97FFF"/>
<rect x="12" y="20" width="1" height="1" fill="#C97FFF"/>
<rect x="13" y="20" width="1" height="1" fill="black"/>
<rect x="14" y="20" width="1" height="1" fill="black"/>
<rect x="15" y="20" width="1" height="1" fill="black"/>
<rect x="16" y="20" width="1" height="1" fill="black"/>
<rect x="17" y="20" width="1" height="1" fill="black"/>
<rect x="18" y="20" width="1" height="1" fill="black"/>
<rect x="19" y="20" width="1" height="1" fill="black"/>
<rect x="20" y="20" width="1" height="1" fill="black"/>
<rect x="21" y="20" width="1" height="1" fill="black"/>
<rect x="22" y="20" width="1" height="1" fill="#4E4C7F"/>
<rect x="23" y="20" width="1" height="1" fill="#C97FFF"/>
<rect x="24" y="20" width="1" height="1" fill="#C97FFF"/>
<rect x="25" y="20" width="1" height="1" fill="#C97FFF"/>
<rect x="26" y="20" width="1" height="1" fill="#C97FFF"/>
<rect x="27" y="20" width="1" height="1" fill="#C97FFF"/>
<rect x="28" y="20" width="1" height="1" fill="#DEB2FF"/>
<rect x="29" y="20" width="1" height="1" fill="#C97FFF"/>
<rect x="30" y="20" width="1" height="1" fill="#9164E5"/>
<rect x="31" y="20" width="1" height="1" fill="#9164E5"/>
<rect x="32" y="20" width="1" height="1" fill="#9164E5"/>
<rect x="33" y="20" width="1" height="1" fill="#9164E5"/>
<rect x="34" y="20" width="1" height="1" fill="black"/>
<rect x="7" y="21" width="1" height="1" fill="black"/>
<rect x="8" y="21" width="1" height="1" fill="#C97FFF"/>
<rect x="9" y="21" width="1" height="1" fill="#C97FFF"/>
<rect x="10" y="21" width="1" height="1" fill="#C97FFF"/>
<rect x="11" y="21" width="1" height="1" fill="#C97FFF"/>
<rect x="12" y="21" width="1" height="1" fill="#4E4C7F"/>
<rect x="13" y="21" width="1" height="1" fill="white"/>
<rect x="14" y="21" width="1" height="1" fill="white"/>
<rect x="15" y="21" width="1" height="1" fill="white"/>
<rect x="16" y="21" width="1" height="1" fill="white"/>
<rect x="17" y="21" width="1" height="1" fill="white"/>
<rect x="18" y="21" width="1" height="1" fill="black"/>
<rect x="19" y="21" width="1" height="1" fill="black"/>
<rect x="20" y="21" width="1" height="1" fill="white"/>
<rect x="21" y="21" width="1" height="1" fill="white"/>
<rect x="22" y="21" width="1" height="1" fill="white"/>
<rect x="23" y="21" width="1" height="1" fill="#4E4C7F"/>
<rect x="24" y="21" width="1" height="1" fill="#C97FFF"/>
<rect x="25" y="21" width="1" height="1" fill="#C97FFF"/>
<rect x="26" y="21" width="1" height="1" fill="#C97FFF"/>
<rect x="27" y="21" width="1" height="1" fill="#C97FFF"/>
<rect x="28" y="21" width="1" height="1" fill="#C97FFF"/>
<rect x="29" y="21" width="1" height="1" fill="#DEB2FF"/>
<rect x="30" y="21" width="1" height="1" fill="#9164E5"/>
<rect x="31" y="21" width="1" height="1" fill="#9164E5"/>
<rect x="32" y="21" width="1" height="1" fill="#9164E5"/>
<rect x="33" y="21" width="1" height="1" fill="#9164E5"/>
<rect x="34" y="21" width="1" height="1" fill="black"/>
<rect x="6" y="22" width="1" height="1" fill="black"/>
<rect x="7" y="22" width="1" height="1" fill="#9164E5"/>
<rect x="8" y="22" width="1" height="1" fill="#C97FFF"/>
<rect x="9" y="22" width="1" height="1" fill="#C97FFF"/>
<rect x="10" y="22" width="1" height="1" fill="#C97FFF"/>
<rect x="11" y="22" width="1" height="1" fill="black"/>
<rect x="12" y="22" width="1" height="1" fill="white"/>
<rect x="13" y="22" width="1" height="1" fill="white"/>
<rect x="14" y="22" width="1" height="1" fill="white"/>
<rect x="15" y="22" width="1" height="1" fill="white"/>
<rect x="16" y="22" width="1" height="1" fill="white"/>
<rect x="17" y="22" width="1" height="1" fill="white"/>
<rect x="18" y="22" width="1" height="1" fill="black"/>
<rect x="19" y="22" width="1" height="1" fill="black"/>
<rect x="20" y="22" width="1" height="1" fill="white"/>
<rect x="21" y="22" width="1" height="1" fill="white"/>
<rect x="22" y="22" width="1" height="1" fill="white"/>
<rect x="23" y="22" width="1" height="1" fill="white"/>
<rect x="24" y="22" width="1" height="1" fill="black"/>
<rect x="25" y="22" width="1" height="1" fill="#C97FFF"/>
<rect x="26" y="22" width="1" height="1" fill="#C97FFF"/>
<rect x="27" y="22" width="1" height="1" fill="#C97FFF"/>
<rect x="28" y="22" width="1" height="1" fill="#C97FFF"/>
<rect x="29" y="22" width="1" height="1" fill="#C97FFF"/>
<rect x="30" y="22" width="1" height="1" fill="#DEB2FF"/>
<rect x="31" y="22" width="1" height="1" fill="#9164E5"/>
<rect x="32" y="22" width="1" height="1" fill="#9164E5"/>
<rect x="33" y="22" width="1" height="1" fill="#9164E5"/>
<rect x="34" y="22" width="1" height="1" fill="#9164E5"/>
<rect x="35" y="22" width="1" height="1" fill="black"/>
<rect x="6" y="23" width="1" height="1" fill="black"/>
<rect x="7" y="23" width="1" height="1" fill="#C97FFF"/>
<rect x="8" y="23" width="1" height="1" fill="#C97FFF"/>
<rect x="9" y="23" width="1" height="1" fill="#C97FFF"/>
<rect x="10" y="23" width="1" height="1" fill="#C97FFF"/>
<rect x="11" y="23" width="1" height="1" fill="black"/>
<rect x="12" y="23" width="1" height="1" fill="white"/>
<rect x="13" y="23" width="1" height="1" fill="white"/>
<rect x="14" y="23" width="1" height="1" fill="white"/>
<rect x="15" y="23" width="1" height="1" fill="white"/>
<rect x="16" y="23" width="1" height="1" fill="black"/>
<rect x="17" y="23" width="1" height="1" fill="black"/>
<rect x="18" y="23" width="1" height="1" fill="black"/>
<rect x="19" y="23" width="1" height="1" fill="black"/>
<rect x="20" y="23" width="1" height="1" fill="white"/>
<rect x="21" y="23" width="1" height="1" fill="white"/>
<rect x="22" y="23" width="1" height="1" fill="white"/>
<rect x="23" y="23" width="1" height="1" fill="white"/>
<rect x="24" y="23" width="1" height="1" fill="black"/>
<rect x="25" y="23" width="1" height="1" fill="#C97FFF"/>
<rect x="26" y="23" width="1" height="1" fill="#C97FFF"/>
<rect x="27" y="23" width="1" height="1" fill="#C97FFF"/>
<rect x="28" y="23" width="1" height="1" fill="#C97FFF"/>
<rect x="29" y="23" width="1" height="1" fill="#C97FFF"/>
<rect x="30" y="23" width="1" height="1" fill="#DEB2FF"/>
<rect x="31" y="23" width="1" height="1" fill="#C97FFF"/>
<rect x="32" y="23" width="1" height="1" fill="#9164E5"/>
<rect x="33" y="23" width="1" height="1" fill="#9164E5"/>
<rect x="34" y="23" width="1" height="1" fill="#9164E5"/>
<rect x="35" y="23" width="1" height="1" fill="#9164E5"/>
<rect x="36" y="23" width="1" height="1" fill="black"/>
<rect x="5" y="24" width="1" height="1" fill="black"/>
<rect x="6" y="24" width="1" height="1" fill="#9164E5"/>
<rect x="7" y="24" width="1" height="1" fill="#C97FFF"/>
<rect x="8" y="24" width="1" height="1" fill="#C97FFF"/>
<rect x="9" y="24" width="1" height="1" fill="#C97FFF"/>
<rect x="10" y="24" width="1" height="1" fill="#C97FFF"/>
<rect x="11" y="24" width="1" height="1" fill="black"/>
<rect x="12" y="24" width="1" height="1" fill="white"/>
<rect x="13" y="24" width="1" height="1" fill="white"/>
<rect x="14" y="24" width="1" height="1" fill="white"/>
<rect x="15" y="24" width="1" height="1" fill="white"/>
<rect x="16" y="24" width="1" height="1" fill="black"/>
<rect x="17" y="24" width="1" height="1" fill="black"/>
<rect x="18" y="24" width="1" height="1" fill="black"/>
<rect x="19" y="24" width="1" height="1" fill="black"/>
<rect x="20" y="24" width="1" height="1" fill="white"/>
<rect x="21" y="24" width="1" height="1" fill="white"/>
<rect x="22" y="24" width="1" height="1" fill="white"/>
<rect x="23" y="24" width="1" height="1" fill="white"/>
<rect x="24" y="24" width="1" height="1" fill="black"/>
<rect x="25" y="24" width="1" height="1" fill="#C97FFF"/>
<rect x="26" y="24" width="1" height="1" fill="#C97FFF"/>
<rect x="27" y="24" width="1" height="1" fill="#C97FFF"/>
<rect x="28" y="24" width="1" height="1" fill="#C97FFF"/>
<rect x="29" y="24" width="1" height="1" fill="#C97FFF"/>
<rect x="30" y="24" width="1" height="1" fill="#C97FFF"/>
<rect x="31" y="24" width="1" height="1" fill="#DEB2FF"/>
<rect x="32" y="24" width="1" height="1" fill="#9164E5"/>
<rect x="33" y="24" width="1" height="1" fill="#9164E5"/>
<rect x="34" y="24" width="1" height="1" fill="#9164E5"/>
<rect x="35" y="24" width="1" height="1" fill="#9164E5"/>
<rect x="36" y="24" width="1" height="1" fill="black"/>
<rect x="4" y="25" width="1" height="1" fill="black"/>
<rect x="5" y="25" width="1" height="1" fill="#9164E5"/>
<rect x="6" y="25" width="1" height="1" fill="#C97FFF"/>
<rect x="7" y="25" width="1" height="1" fill="#C97FFF"/>
<rect x="8" y="25" width="1" height="1" fill="#C97FFF"/>
<rect x="9" y="25" width="1" height="1" fill="#C97FFF"/>
<rect x="10" y="25" width="1" height="1" fill="#C97FFF"/>
<rect x="11" y="25" width="1" height="1" fill="#C97FFF"/>
<rect x="12" y="25" width="1" height="1" fill="#4E4C7F"/>
<rect x="13" y="25" width="1" height="1" fill="white"/>
<rect x="14" y="25" width="1" height="1" fill="white"/>
<rect x="15" y="25" width="1" height="1" fill="white"/>
<rect x="16" y="25" width="1" height="1" fill="white"/>
<rect x="17" y="25" width="1" height="1" fill="white"/>
<rect x="18" y="25" width="1" height="1" fill="white"/>
<rect x="19" y="25" width="1" height="1" fill="white"/>
<rect x="20" y="25" width="1" height="1" fill="white"/>
<rect x="21" y="25" width="1" height="1" fill="white"/>
<rect x="22" y="25" width="1" height="1" fill="white"/>
<rect x="23" y="25" width="1" height="1" fill="#4E4C7F"/>
<rect x="24" y="25" width="1" height="1" fill="#C97FFF"/>
<rect x="25" y="25" width="1" height="1" fill="#C97FFF"/>
<rect x="26" y="25" width="1" height="1" fill="#C97FFF"/>
<rect x="27" y="25" width="1" height="1" fill="#C97FFF"/>
<rect x="28" y="25" width="1" height="1" fill="#C97FFF"/>
<rect x="29" y="25" width="1" height="1" fill="#C97FFF"/>
<rect x="30" y="25" width="1" height="1" fill="#C97FFF"/>
<rect x="31" y="25" width="1" height="1" fill="#C97FFF"/>
<rect x="32" y="25" width="1" height="1" fill="#DEB2FF"/>
<rect x="33" y="25" width="1" height="1" fill="#9164E5"/>
<rect x="34" y="25" width="1" height="1" fill="#9164E5"/>
<rect x="35" y="25" width="1" height="1" fill="#9164E5"/>
<rect x="36" y="25" width="1" height="1" fill="#4E4C7F"/>
<rect x="37" y="25" width="1" height="1" fill="black"/>
<rect x="4" y="26" width="1" height="1" fill="black"/>
<rect x="5" y="26" width="1" height="1" fill="#C97FFF"/>
<rect x="6" y="26" width="1" height="1" fill="#C97FFF"/>
<rect x="7" y="26" width="1" height="1" fill="#C97FFF"/>
<rect x="8" y="26" width="1" height="1" fill="#C97FFF"/>
<rect x="9" y="26" width="1" height="1" fill="#C97FFF"/>
<rect x="10" y="26" width="1" height="1" fill="#C97FFF"/>
<rect x="11" y="26" width="1" height="1" fill="#C97FFF"/>
<rect x="12" y="26" width="1" height="1" fill="#C97FFF"/>
<rect x="13" y="26" width="1" height="1" fill="black"/>
<rect x="14" y="26" width="1" height="1" fill="black"/>
<rect x="15" y="26" width="1" height="1" fill="black"/>
<rect x="16" y="26" width="1" height="1" fill="black"/>
<rect x="17" y="26" width="1" height="1" fill="black"/>
<rect x="18" y="26" width="1" height="1" fill="black"/>
<rect x="19" y="26" width="1" height="1" fill="black"/>
<rect x="20" y="26" width="1" height="1" fill="black"/>
<rect x="21" y="26" width="1" height="1" fill="black"/>
<rect x="22" y="26" width="1" height="1" fill="black"/>
<rect x="23" y="26" width="1" height="1" fill="#C97FFF"/>
<rect x="24" y="26" width="1" height="1" fill="#C97FFF"/>
<rect x="25" y="26" width="1" height="1" fill="#C97FFF"/>
<rect x="26" y="26" width="1" height="1" fill="#C97FFF"/>
<rect x="27" y="26" width="1" height="1" fill="#C97FFF"/>
<rect x="28" y="26" width="1" height="1" fill="#C97FFF"/>
<rect x="29" y="26" width="1" height="1" fill="#C97FFF"/>
<rect x="30" y="26" width="1" height="1" fill="#C97FFF"/>
<rect x="31" y="26" width="1" height="1" fill="#C97FFF"/>
<rect x="32" y="26" width="1" height="1" fill="#DEB2FF"/>
<rect x="33" y="26" width="1" height="1" fill="#C97FFF"/>
<rect x="34" y="26" width="1" height="1" fill="#9164E5"/>
<rect x="35" y="26" width="1" height="1" fill="#9164E5"/>
<rect x="36" y="26" width="1" height="1" fill="#9164E5"/>
<rect x="37" y="26" width="1" height="1" fill="black"/>
<rect x="3" y="27" width="1" height="1" fill="black"/>
<rect x="4" y="27" width="1" height="1" fill="#9164E5"/>
<rect x="5" y="27" width="1" height="1" fill="#C97FFF"/>
<rect x="6" y="27" width="1" height="1" fill="#C97FFF"/>
<rect x="7" y="27" width="1" height="1" fill="#C97FFF"/>
<rect x="8" y="27" width="1" height="1" fill="#C97FFF"/>
<rect x="9" y="27" width="1" height="1" fill="#C97FFF"/>
<rect x="10" y="27" width="1" height="1" fill="#C97FFF"/>
<rect x="11" y="27" width="1" height="1" fill="#C97FFF"/>
<rect x="12" y="27" width="1" height="1" fill="#C97FFF"/>
<rect x="13" y="27" width="1" height="1" fill="#C97FFF"/>
<rect x="14" y="27" width="1" height="1" fill="#C97FFF"/>
<rect x="15" y="27" width="1" height="1" fill="#C97FFF"/>
<rect x="16" y="27" width="1" height="1" fill="#C97FFF"/>
<rect x="17" y="27" width="1" height="1" fill="#C97FFF"/>
<rect x="18" y="27" width="1" height="1" fill="#C97FFF"/>
<rect x="19" y="27" width="1" height="1" fill="#C97FFF"/>
<rect x="20" y="27" width="1" height="1" fill="#C97FFF"/>
<rect x="21" y="27" width="1" height="1" fill="#C97FFF"/>
<rect x="22" y="27" width="1" height="1" fill="#C97FFF"/>
<rect x="23" y="27" width="1" height="1" fill="#C97FFF"/>
<rect x="24" y="27" width="1" height="1" fill="#C97FFF"/>
<rect x="25" y="27" width="1" height="1" fill="#C97FFF"/>
<rect x="26" y="27" width="1" height="1" fill="#C97FFF"/>
<rect x="27" y="27" width="1" height="1" fill="#C97FFF"/>
<rect x="28" y="27" width="1" height="1" fill="#C97FFF"/>
<rect x="29" y="27" width="1" height="1" fill="#C97FFF"/>
<rect x="30" y="27" width="1" height="1" fill="#C97FFF"/>
<rect x="31" y="27" width="1" height="1" fill="#C97FFF"/>
<rect x="32" y="27" width="1" height="1" fill="#C97FFF"/>
<rect x="33" y="27" width="1" height="1" fill="#DEB2FF"/>
<rect x="34" y="27" width="1" height="1" fill="#9164E5"/>
<rect x="35" y="27" width="1" height="1" fill="#9164E5"/>
<rect x="36" y="27" width="1" height="1" fill="#9164E5"/>
<rect x="37" y="27" width="1" height="1" fill="#4E4C7F"/>
<rect x="38" y="27" width="1" height="1" fill="black"/>
<rect x="2" y="28" width="1" height="1" fill="black"/>
<rect x="3" y="28" width="1" height="1" fill="#9164E5"/>
<rect x="4" y="28" width="1" height="1" fill="#C97FFF"/>
<rect x="5" y="28" width="1" height="1" fill="#C97FFF"/>
<rect x="6" y="28" width="1" height="1" fill="#C97FFF"/>
<rect x="7" y="28" width="1" height="1" fill="#C97FFF"/>
<rect x="8" y="28" width="1" height="1" fill="#C97FFF"/>
<rect x="9" y="28" width="1" height="1" fill="#C97FFF"/>
<rect x="10" y="28" width="1" height="1" fill="#C97FFF"/>
<rect x="11" y="28" width="1" height="1" fill="#C97FFF"/>
<rect x="12" y="28" width="1" height="1" fill="#C97FFF"/>
<rect x="13" y="28" width="1" height="1" fill="#C97FFF"/>
<rect x="14" y="28" width="1" height="1" fill="#C97FFF"/>
<rect x="15" y="28" width="1" height="1" fill="#C97FFF"/>
<rect x="16" y="28" width="1" height="1" fill="#C97FFF"/>
<rect x="17" y="28" width="1" height="1" fill="#C97FFF"/>
<rect x="18" y="28" width="1" height="1" fill="#C97FFF"/>
<rect x="19" y="28" width="1" height="1" fill="#C97FFF"/>
<rect x="20" y="28" width="1" height="1" fill="#C97FFF"/>
<rect x="21" y="28" width="1" height="1" fill="#C97FFF"/>
<rect x="22" y="28" width="1" height="1" fill="#C97FFF"/>
<rect x="23" y="28" width="1" height="1" fill="#C97FFF"/>
<rect x="24" y="28" width="1" height="1" fill="#C97FFF"/>
<rect x="25" y="28" width="1" height="1" fill="#C97FFF"/>
<rect x="26" y="28" width="1" height="1" fill="#9164E5"/>
<rect x="27" y="28" width="1" height="1" fill="#C97FFF"/>
<rect x="28" y="28" width="1" height="1" fill="#C97FFF"/>
<rect x="29" y="28" width="1" height="1" fill="#C97FFF"/>
<rect x="30" y="28" width="1" height="1" fill="#C97FFF"/>
<rect x="31" y="28" width="1" height="1" fill="#C97FFF"/>
<rect x="32" y="28" width="1" height="1" fill="#C97FFF"/>
<rect x="33" y="28" width="1" height="1" fill="#C97FFF"/>
<rect x="34" y="28" width="1" height="1" fill="#DEB2FF"/>
<rect x="35" y="28" width="1" height="1" fill="#9164E5"/>
<rect x="36" y="28" width="1" height="1" fill="#9164E5"/>
<rect x="37" y="28" width="1" height="1" fill="#9164E5"/>
<rect x="38" y="28" width="1" height="1" fill="black"/>
<rect x="2" y="29" width="1" height="1" fill="black"/>
<rect x="3" y="29" width="1" height="1" fill="#C97FFF"/>
<rect x="4" y="29" width="1" height="1" fill="#C97FFF"/>
<rect x="5" y="29" width="1" height="1" fill="#C97FFF"/>
<rect x="6" y="29" width="1" height="1" fill="#C97FFF"/>
<rect x="7" y="29" width="1" height="1" fill="#C97FFF"/>
<rect x="8" y="29" width="1" height="1" fill="#C97FFF"/>
<rect x="9" y="29" width="1" height="1" fill="#C97FFF"/>
<rect x="10" y="29" width="1" height="1" fill="#C97FFF"/>
<rect x="11" y="29" width="1" height="1" fill="#C97FFF"/>
<rect x="12" y="29" width="1" height="1" fill="#C97FFF"/>
<rect x="13" y="29" width="1" height="1" fill="#C97FFF"/>
<rect x="14" y="29" width="1" height="1" fill="#C97FFF"/>
<rect x="15" y="29" width="1" height="1" fill="#C97FFF"/>
<rect x="16" y="29" width="1" height="1" fill="#C97FFF"/>
<rect x="17" y="29" width="1" height="1" fill="#C97FFF"/>
<rect x="18" y="29" width="1" height="1" fill="#C97FFF"/>
<rect x="19" y="29" width="1" height="1" fill="#C97FFF"/>
<rect x="20" y="29" width="1" height="1" fill="#C97FFF"/>
<rect x="21" y="29" width="1" height="1" fill="#C97FFF"/>
<rect x="22" y="29" width="1" height="1" fill="#C97FFF"/>
<rect x="23" y="29" width="1" height="1" fill="#C97FFF"/>
<rect x="24" y="29" width="1" height="1" fill="#C97FFF"/>
<rect x="25" y="29" width="1" height="1" fill="#C97FFF"/>
<rect x="26" y="29" width="1" height="1" fill="#4E4C7F"/>
<rect x="27" y="29" width="1" height="1" fill="#C97FFF"/>
<rect x="28" y="29" width="1" height="1" fill="#C97FFF"/>
<rect x="29" y="29" width="1" height="1" fill="#C97FFF"/>
<rect x="30" y="29" width="1" height="1" fill="#C97FFF"/>
<rect x="31" y="29" width="1" height="1" fill="#C97FFF"/>
<rect x="32" y="29" width="1" height="1" fill="#C97FFF"/>
<rect x="33" y="29" width="1" height="1" fill="#9164E5"/>
<rect x="34" y="29" width="1" height="1" fill="#DEB2FF"/>
<rect x="35" y="29" width="1" height="1" fill="#C97FFF"/>
<rect x="36" y="29" width="1" height="1" fill="#9164E5"/>
<rect x="37" y="29" width="1" height="1" fill="#9164E5"/>
<rect x="38" y="29" width="1" height="1" fill="#4E4C7F"/>
<rect x="39" y="29" width="1" height="1" fill="black"/>
<rect x="1" y="30" width="1" height="1" fill="black"/>
<rect x="2" y="30" width="1" height="1" fill="#9164E5"/>
<rect x="3" y="30" width="1" height="1" fill="#C97FFF"/>
<rect x="4" y="30" width="1" height="1" fill="#9164E5"/>
<rect x="5" y="30" width="1" height="1" fill="#C97FFF"/>
<rect x="6" y="30" width="1" height="1" fill="#C97FFF"/>
<rect x="7" y="30" width="1" height="1" fill="#C97FFF"/>
<rect x="8" y="30" width="1" height="1" fill="#C97FFF"/>
<rect x="9" y="30" width="1" height="1" fill="#C97FFF"/>
<rect x="10" y="30" width="1" height="1" fill="#C97FFF"/>
<rect x="11" y="30" width="1" height="1" fill="#C97FFF"/>
<rect x="12" y="30" width="1" height="1" fill="#C97FFF"/>
<rect x="13" y="30" width="1" height="1" fill="#C97FFF"/>
<rect x="14" y="30" width="1" height="1" fill="#C97FFF"/>
<rect x="15" y="30" width="1" height="1" fill="#C97FFF"/>
<rect x="16" y="30" width="1" height="1" fill="#C97FFF"/>
<rect x="17" y="30" width="1" height="1" fill="#C97FFF"/>
<rect x="18" y="30" width="1" height="1" fill="#C97FFF"/>
<rect x="19" y="30" width="1" height="1" fill="#C97FFF"/>
<rect x="20" y="30" width="1" height="1" fill="#C97FFF"/>
<rect x="21" y="30" width="1" height="1" fill="#C97FFF"/>
<rect x="22" y="30" width="1" height="1" fill="#C97FFF"/>
<rect x="23" y="30" width="1" height="1" fill="#C97FFF"/>
<rect x="24" y="30" width="1" height="1" fill="#C97FFF"/>
<rect x="25" y="30" width="1" height="1" fill="#C97FFF"/>
<rect x="26" y="30" width="1" height="1" fill="#C97FFF"/>
<rect x="27" y="30" width="1" height="1" fill="black"/>
<rect x="28" y="30" width="1" height="1" fill="#C97FFF"/>
<rect x="29" y="30" width="1" height="1" fill="#C97FFF"/>
<rect x="30" y="30" width="1" height="1" fill="#C97FFF"/>
<rect x="31" y="30" width="1" height="1" fill="#C97FFF"/>
<rect x="32" y="30" width="1" height="1" fill="#C97FFF"/>
<rect x="33" y="30" width="1" height="1" fill="#C97FFF"/>
<rect x="34" y="30" width="1" height="1" fill="#9164E5"/>
<rect x="35" y="30" width="1" height="1" fill="#DEB2FF"/>
<rect x="36" y="30" width="1" height="1" fill="#9164E5"/>
<rect x="37" y="30" width="1" height="1" fill="#9164E5"/>
<rect x="38" y="30" width="1" height="1" fill="#9164E5"/>
<rect x="39" y="30" width="1" height="1" fill="black"/>
<rect x="1" y="31" width="1" height="1" fill="black"/>
<rect x="2" y="31" width="1" height="1" fill="#C97FFF"/>
<rect x="3" y="31" width="1" height="1" fill="#9164E5"/>
<rect x="4" y="31" width="1" height="1" fill="#C97FFF"/>
<rect x="5" y="31" width="1" height="1" fill="#C97FFF"/>
<rect x="6" y="31" width="1" height="1" fill="#C97FFF"/>
<rect x="7" y="31" width="1" height="1" fill="#C97FFF"/>
<rect x="8" y="31" width="1" height="1" fill="#C97FFF"/>
<rect x="9" y="31" width="1" height="1" fill="#C97FFF"/>
<rect x="10" y="31" width="1" height="1" fill="#C97FFF"/>
<rect x="11" y="31" width="1" height="1" fill="#C97FFF"/>
<rect x="12" y="31" width="1" height="1" fill="#C97FFF"/>
<rect x="13" y="31" width="1" height="1" fill="#C97FFF"/>
<rect x="14" y="31" width="1" height="1" fill="#C97FFF"/>
<rect x="15" y="31" width="1" height="1" fill="#C97FFF"/>
<rect x="16" y="31" width="1" height="1" fill="#C97FFF"/>
<rect x="17" y="31" width="1" height="1" fill="#C97FFF"/>
<rect x="18" y="31" width="1" height="1" fill="#C97FFF"/>
<rect x="19" y="31" width="1" height="1" fill="#C97FFF"/>
<rect x="20" y="31" width="1" height="1" fill="#C97FFF"/>
<rect x="21" y="31" width="1" height="1" fill="#C97FFF"/>
<rect x="22" y="31" width="1" height="1" fill="#C97FFF"/>
<rect x="23" y="31" width="1" height="1" fill="#C97FFF"/>
<rect x="24" y="31" width="1" height="1" fill="#C97FFF"/>
<rect x="25" y="31" width="1" height="1" fill="#C97FFF"/>
<rect x="26" y="31" width="1" height="1" fill="black"/>
<rect x="27" y="31" width="1" height="1" fill="#C97FFF"/>
<rect x="28" y="31" width="1" height="1" fill="#4E4C7F"/>
<rect x="29" y="31" width="1" height="1" fill="#9164E5"/>
<rect x="30" y="31" width="1" height="1" fill="#C97FFF"/>
<rect x="31" y="31" width="1" height="1" fill="#C97FFF"/>
<rect x="32" y="31" width="1" height="1" fill="#C97FFF"/>
<rect x="33" y="31" width="1" height="1" fill="#C97FFF"/>
<rect x="34" y="31" width="1" height="1" fill="#9164E5"/>
<rect x="35" y="31" width="1" height="1" fill="#9164E5"/>
<rect x="36" y="31" width="1" height="1" fill="#C97FFF"/>
<rect x="37" y="31" width="1" height="1" fill="#9164E5"/>
<rect x="38" y="31" width="1" height="1" fill="#9164E5"/>
<rect x="39" y="31" width="1" height="1" fill="#9164E5"/>
<rect x="40" y="31" width="1" height="1" fill="black"/>
<rect y="32" width="1" height="1" fill="black"/>
<rect x="1" y="32" width="1" height="1" fill="#9164E5"/>
<rect x="2" y="32" width="1" height="1" fill="#9164E5"/>
<rect x="3" y="32" width="1" height="1" fill="#9164E5"/>
<rect x="4" y="32" width="1" height="1" fill="#C97FFF"/>
<rect x="5" y="32" width="1" height="1" fill="#C97FFF"/>
<rect x="6" y="32" width="1" height="1" fill="#C97FFF"/>
<rect x="7" y="32" width="1" height="1" fill="#C97FFF"/>
<rect x="8" y="32" width="1" height="1" fill="#C97FFF"/>
<rect x="9" y="32" width="1" height="1" fill="#C97FFF"/>
<rect x="10" y="32" width="1" height="1" fill="#C97FFF"/>
<rect x="11" y="32" width="1" height="1" fill="#C97FFF"/>
<rect x="12" y="32" width="1" height="1" fill="#C97FFF"/>
<rect x="13" y="32" width="1" height="1" fill="#C97FFF"/>
<rect x="14" y="32" width="1" height="1" fill="#C97FFF"/>
<rect x="15" y="32" width="1" height="1" fill="#C97FFF"/>
<rect x="16" y="32" width="1" height="1" fill="#C97FFF"/>
<rect x="17" y="32" width="1" height="1" fill="#C97FFF"/>
<rect x="18" y="32" width="1" height="1" fill="#C97FFF"/>
<rect x="19" y="32" width="1" height="1" fill="#C97FFF"/>
<rect x="20" y="32" width="1" height="1" fill="#9164E5"/>
<rect x="21" y="32" width="1" height="1" fill="black"/>
<rect x="22" y="32" width="1" height="1" fill="black"/>
<rect x="23" y="32" width="1" height="1" fill="black"/>
<rect x="24" y="32" width="1" height="1" fill="black"/>
<rect x="25" y="32" width="1" height="1" fill="black"/>
<rect x="26" y="32" width="1" height="1" fill="#9164E5"/>
<rect x="27" y="32" width="1" height="1" fill="#C97FFF"/>
<rect x="28" y="32" width="1" height="1" fill="#C97FFF"/>
<rect x="29" y="32" width="1" height="1" fill="#C97FFF"/>
<rect x="30" y="32" width="1" height="1" fill="#C97FFF"/>
<rect x="31" y="32" width="1" height="1" fill="#C97FFF"/>
<rect x="32" y="32" width="1" height="1" fill="#C97FFF"/>
<rect x="33" y="32" width="1" height="1" fill="#C97FFF"/>
<rect x="34" y="32" width="1" height="1" fill="#C97FFF"/>
<rect x="35" y="32" width="1" height="1" fill="#9164E5"/>
<rect x="36" y="32" width="1" height="1" fill="#9164E5"/>
<rect x="37" y="32" width="1" height="1" fill="#C97FFF"/>
<rect x="38" y="32" width="1" height="1" fill="#9164E5"/>
<rect x="39" y="32" width="1" height="1" fill="#9164E5"/>
<rect x="40" y="32" width="1" height="1" fill="#4E4C7F"/>
<rect x="41" y="32" width="1" height="1" fill="black"/>
<rect y="33" width="1" height="1" fill="black"/>
<rect x="1" y="33" width="1" height="1" fill="#9164E5"/>
<rect x="2" y="33" width="1" height="1" fill="#9164E5"/>
<rect x="3" y="33" width="1" height="1" fill="#C97FFF"/>
<rect x="4" y="33" width="1" height="1" fill="#9164E5"/>
<rect x="5" y="33" width="1" height="1" fill="#C97FFF"/>
<rect x="6" y="33" width="1" height="1" fill="#C97FFF"/>
<rect x="7" y="33" width="1" height="1" fill="#C97FFF"/>
<rect x="8" y="33" width="1" height="1" fill="#C97FFF"/>
<rect x="9" y="33" width="1" height="1" fill="#C97FFF"/>
<rect x="10" y="33" width="1" height="1" fill="#C97FFF"/>
<rect x="11" y="33" width="1" height="1" fill="#C97FFF"/>
<rect x="12" y="33" width="1" height="1" fill="#C97FFF"/>
<rect x="13" y="33" width="1" height="1" fill="#C97FFF"/>
<rect x="14" y="33" width="1" height="1" fill="#C97FFF"/>
<rect x="15" y="33" width="1" height="1" fill="#C97FFF"/>
<rect x="16" y="33" width="1" height="1" fill="#C97FFF"/>
<rect x="17" y="33" width="1" height="1" fill="#C97FFF"/>
<rect x="18" y="33" width="1" height="1" fill="#C97FFF"/>
<rect x="19" y="33" width="1" height="1" fill="#C97FFF"/>
<rect x="20" y="33" width="1" height="1" fill="#C97FFF"/>
<rect x="21" y="33" width="1" height="1" fill="#C97FFF"/>
<rect x="22" y="33" width="1" height="1" fill="#C97FFF"/>
<rect x="23" y="33" width="1" height="1" fill="#C97FFF"/>
<rect x="24" y="33" width="1" height="1" fill="#C97FFF"/>
<rect x="25" y="33" width="1" height="1" fill="#C97FFF"/>
<rect x="26" y="33" width="1" height="1" fill="#C97FFF"/>
<rect x="27" y="33" width="1" height="1" fill="#C97FFF"/>
<rect x="28" y="33" width="1" height="1" fill="#C97FFF"/>
<rect x="29" y="33" width="1" height="1" fill="#C97FFF"/>
<rect x="30" y="33" width="1" height="1" fill="#C97FFF"/>
<rect x="31" y="33" width="1" height="1" fill="#C97FFF"/>
<rect x="32" y="33" width="1" height="1" fill="#C97FFF"/>
<rect x="33" y="33" width="1" height="1" fill="#9164E5"/>
<rect x="34" y="33" width="1" height="1" fill="#C97FFF"/>
<rect x="35" y="33" width="1" height="1" fill="#C97FFF"/>
<rect x="36" y="33" width="1" height="1" fill="#9164E5"/>
<rect x="37" y="33" width="1" height="1" fill="#DEB2FF"/>
<rect x="38" y="33" width="1" height="1" fill="#C97FFF"/>
<rect x="39" y="33" width="1" height="1" fill="#C97FFF"/>
<rect x="40" y="33" width="1" height="1" fill="#9164E5"/>
<rect x="41" y="33" width="1" height="1" fill="black"/>
<rect y="34" width="1" height="1" fill="black"/>
<rect x="1" y="34" width="1" height="1" fill="#9164E5"/>
<rect x="2" y="34" width="1" height="1" fill="#C97FFF"/>
<rect x="3" y="34" width="1" height="1" fill="#9164E5"/>
<rect x="4" y="34" width="1" height="1" fill="#C97FFF"/>
<rect x="5" y="34" width="1" height="1" fill="#C97FFF"/>
<rect x="6" y="34" width="1" height="1" fill="#C97FFF"/>
<rect x="7" y="34" width="1" height="1" fill="#C97FFF"/>
<rect x="8" y="34" width="1" height="1" fill="#C97FFF"/>
<rect x="9" y="34" width="1" height="1" fill="#C97FFF"/>
<rect x="10" y="34" width="1" height="1" fill="#C97FFF"/>
<rect x="11" y="34" width="1" height="1" fill="#C97FFF"/>
<rect x="12" y="34" width="1" height="1" fill="#C97FFF"/>
<rect x="13" y="34" width="1" height="1" fill="#C97FFF"/>
<rect x="14" y="34" width="1" height="1" fill="#C97FFF"/>
<rect x="15" y="34" width="1" height="1" fill="#C97FFF"/>
<rect x="16" y="34" width="1" height="1" fill="#C97FFF"/>
<rect x="17" y="34" width="1" height="1" fill="#C97FFF"/>
<rect x="18" y="34" width="1" height="1" fill="#C97FFF"/>
<rect x="19" y="34" width="1" height="1" fill="#C97FFF"/>
<rect x="20" y="34" width="1" height="1" fill="#C97FFF"/>
<rect x="21" y="34" width="1" height="1" fill="#C97FFF"/>
<rect x="22" y="34" width="1" height="1" fill="#C97FFF"/>
<rect x="23" y="34" width="1" height="1" fill="#C97FFF"/>
<rect x="24" y="34" width="1" height="1" fill="#C97FFF"/>
<rect x="25" y="34" width="1" height="1" fill="#C97FFF"/>
<rect x="26" y="34" width="1" height="1" fill="#C97FFF"/>
<rect x="27" y="34" width="1" height="1" fill="#C97FFF"/>
<rect x="28" y="34" width="1" height="1" fill="#C97FFF"/>
<rect x="29" y="34" width="1" height="1" fill="#C97FFF"/>
<rect x="30" y="34" width="1" height="1" fill="#C97FFF"/>
<rect x="31" y="34" width="1" height="1" fill="#C97FFF"/>
<rect x="32" y="34" width="1" height="1" fill="#C97FFF"/>
<rect x="33" y="34" width="1" height="1" fill="#C97FFF"/>
<rect x="34" y="34" width="1" height="1" fill="#9164E5"/>
<rect x="35" y="34" width="1" height="1" fill="#C97FFF"/>
<rect x="36" y="34" width="1" height="1" fill="#9164E5"/>
<rect x="37" y="34" width="1" height="1" fill="#DEB2FF"/>
<rect x="38" y="34" width="1" height="1" fill="#C97FFF"/>
<rect x="39" y="34" width="1" height="1" fill="#C97FFF"/>
<rect x="40" y="34" width="1" height="1" fill="#9164E5"/>
<rect x="41" y="34" width="1" height="1" fill="#4E4C7F"/>
<rect x="42" y="34" width="1" height="1" fill="black"/>
<rect y="35" width="1" height="1" fill="black"/>
<rect x="1" y="35" width="1" height="1" fill="#9164E5"/>
<rect x="2" y="35" width="1" height="1" fill="#9164E5"/>
<rect x="3" y="35" width="1" height="1" fill="#9164E5"/>
<rect x="4" y="35" width="1" height="1" fill="#C97FFF"/>
<rect x="5" y="35" width="1" height="1" fill="#C97FFF"/>
<rect x="6" y="35" width="1" height="1" fill="#9164E5"/>
<rect x="7" y="35" width="1" height="1" fill="#C97FFF"/>
<rect x="8" y="35" width="1" height="1" fill="#C97FFF"/>
<rect x="9" y="35" width="1" height="1" fill="#C97FFF"/>
<rect x="10" y="35" width="1" height="1" fill="#C97FFF"/>
<rect x="11" y="35" width="1" height="1" fill="#C97FFF"/>
<rect x="12" y="35" width="1" height="1" fill="#C97FFF"/>
<rect x="13" y="35" width="1" height="1" fill="#C97FFF"/>
<rect x="14" y="35" width="1" height="1" fill="#C97FFF"/>
<rect x="15" y="35" width="1" height="1" fill="#C97FFF"/>
<rect x="16" y="35" width="1" height="1" fill="#C97FFF"/>
<rect x="17" y="35" width="1" height="1" fill="#C97FFF"/>
<rect x="18" y="35" width="1" height="1" fill="#C97FFF"/>
<rect x="19" y="35" width="1" height="1" fill="#C97FFF"/>
<rect x="20" y="35" width="1" height="1" fill="#C97FFF"/>
<rect x="21" y="35" width="1" height="1" fill="#C97FFF"/>
<rect x="22" y="35" width="1" height="1" fill="#C97FFF"/>
<rect x="23" y="35" width="1" height="1" fill="#C97FFF"/>
<rect x="24" y="35" width="1" height="1" fill="#C97FFF"/>
<rect x="25" y="35" width="1" height="1" fill="#C97FFF"/>
<rect x="26" y="35" width="1" height="1" fill="#C97FFF"/>
<rect x="27" y="35" width="1" height="1" fill="#C97FFF"/>
<rect x="28" y="35" width="1" height="1" fill="#C97FFF"/>
<rect x="29" y="35" width="1" height="1" fill="#C97FFF"/>
<rect x="30" y="35" width="1" height="1" fill="#C97FFF"/>
<rect x="31" y="35" width="1" height="1" fill="#C97FFF"/>
<rect x="32" y="35" width="1" height="1" fill="#C97FFF"/>
<rect x="33" y="35" width="1" height="1" fill="#C97FFF"/>
<rect x="34" y="35" width="1" height="1" fill="#9164E5"/>
<rect x="35" y="35" width="1" height="1" fill="#9164E5"/>
<rect x="36" y="35" width="1" height="1" fill="#9164E5"/>
<rect x="37" y="35" width="1" height="1" fill="#C97FFF"/>
<rect x="38" y="35" width="1" height="1" fill="#4E4C7F"/>
<rect x="39" y="35" width="1" height="1" fill="#4E4C7F"/>
<rect x="40" y="35" width="1" height="1" fill="#4E4C7F"/>
<rect x="41" y="35" width="1" height="1" fill="#4E4C7F"/>
<rect x="42" y="35" width="1" height="1" fill="black"/>
<rect x="1" y="36" width="1" height="1" fill="black"/>
<rect x="2" y="36" width="1" height="1" fill="#9164E5"/>
<rect x="3" y="36" width="1" height="1" fill="#9164E5"/>
<rect x="4" y="36" width="1" height="1" fill="#9164E5"/>
<rect x="5" y="36" width="1" height="1" fill="#9164E5"/>
<rect x="6" y="36" width="1" height="1" fill="#C97FFF"/>
<rect x="7" y="36" width="1" height="1" fill="#C97FFF"/>
<rect x="8" y="36" width="1" height="1" fill="#C97FFF"/>
<rect x="9" y="36" width="1" height="1" fill="#C97FFF"/>
<rect x="10" y="36" width="1" height="1" fill="#C97FFF"/>
<rect x="11" y="36" width="1" height="1" fill="#C97FFF"/>
<rect x="12" y="36" width="1" height="1" fill="#C97FFF"/>
<rect x="13" y="36" width="1" height="1" fill="#C97FFF"/>
<rect x="14" y="36" width="1" height="1" fill="#C97FFF"/>
<rect x="15" y="36" width="1" height="1" fill="#C97FFF"/>
<rect x="16" y="36" width="1" height="1" fill="#C97FFF"/>
<rect x="17" y="36" width="1" height="1" fill="#C97FFF"/>
<rect x="18" y="36" width="1" height="1" fill="#C97FFF"/>
<rect x="19" y="36" width="1" height="1" fill="#C97FFF"/>
<rect x="20" y="36" width="1" height="1" fill="#C97FFF"/>
<rect x="21" y="36" width="1" height="1" fill="#C97FFF"/>
<rect x="22" y="36" width="1" height="1" fill="#C97FFF"/>
<rect x="23" y="36" width="1" height="1" fill="#C97FFF"/>
<rect x="24" y="36" width="1" height="1" fill="#C97FFF"/>
<rect x="25" y="36" width="1" height="1" fill="#C97FFF"/>
<rect x="26" y="36" width="1" height="1" fill="#C97FFF"/>
<rect x="27" y="36" width="1" height="1" fill="#C97FFF"/>
<rect x="28" y="36" width="1" height="1" fill="#C97FFF"/>
<rect x="29" y="36" width="1" height="1" fill="#C97FFF"/>
<rect x="30" y="36" width="1" height="1" fill="#C97FFF"/>
<rect x="31" y="36" width="1" height="1" fill="#C97FFF"/>
<rect x="32" y="36" width="1" height="1" fill="#C97FFF"/>
<rect x="33" y="36" width="1" height="1" fill="#9164E5"/>
<rect x="34" y="36" width="1" height="1" fill="#9164E5"/>
<rect x="35" y="36" width="1" height="1" fill="#9164E5"/>
<rect x="36" y="36" width="1" height="1" fill="#C97FFF"/>
<rect x="37" y="36" width="1" height="1" fill="#4E4C7F"/>
<rect x="38" y="36" width="1" height="1" fill="#4E4C7F"/>
<rect x="39" y="36" width="1" height="1" fill="#4E4C7F"/>
<rect x="40" y="36" width="1" height="1" fill="#4E4C7F"/>
<rect x="41" y="36" width="1" height="1" fill="black"/>
<rect x="2" y="37" width="1" height="1" fill="black"/>
<rect x="3" y="37" width="1" height="1" fill="black"/>
<rect x="4" y="37" width="1" height="1" fill="black"/>
<rect x="5" y="37" width="1" height="1" fill="black"/>
<rect x="6" y="37" width="1" height="1" fill="black"/>
<rect x="7" y="37" width="1" height="1" fill="black"/>
<rect x="8" y="37" width="1" height="1" fill="black"/>
<rect x="9" y="37" width="1" height="1" fill="black"/>
<rect x="10" y="37" width="1" height="1" fill="black"/>
<rect x="11" y="37" width="1" height="1" fill="black"/>
<rect x="12" y="37" width="1" height="1" fill="black"/>
<rect x="13" y="37" width="1" height="1" fill="black"/>
<rect x="14" y="37" width="1" height="1" fill="black"/>
<rect x="15" y="37" width="1" height="1" fill="black"/>
<rect x="16" y="37" width="1" height="1" fill="black"/>
<rect x="17" y="37" width="1" height="1" fill="black"/>
<rect x="18" y="37" width="1" height="1" fill="black"/>
<rect x="19" y="37" width="1" height="1" fill="black"/>
<rect x="20" y="37" width="1" height="1" fill="black"/>
<rect x="21" y="37" width="1" height="1" fill="black"/>
<rect x="22" y="37" width="1" height="1" fill="black"/>
<rect x="23" y="37" width="1" height="1" fill="black"/>
<rect x="24" y="37" width="1" height="1" fill="black"/>
<rect x="25" y="37" width="1" height="1" fill="black"/>
<rect x="26" y="37" width="1" height="1" fill="black"/>
<rect x="27" y="37" width="1" height="1" fill="black"/>
<rect x="28" y="37" width="1" height="1" fill="black"/>
<rect x="29" y="37" width="1" height="1" fill="black"/>
<rect x="30" y="37" width="1" height="1" fill="black"/>
<rect x="31" y="37" width="1" height="1" fill="black"/>
<rect x="32" y="37" width="1" height="1" fill="black"/>
<rect x="33" y="37" width="1" height="1" fill="black"/>
<rect x="34" y="37" width="1" height="1" fill="black"/>
<rect x="35" y="37" width="1" height="1" fill="black"/>
<rect x="36" y="37" width="1" height="1" fill="black"/>
<rect x="37" y="37" width="1" height="1" fill="black"/>
<rect x="38" y="37" width="1" height="1" fill="black"/>
<rect x="39" y="37" width="1" height="1" fill="black"/>
<rect x="40" y="37" width="1" height="1" fill="black"/>
</svg>
