<svg width="62" height="66" viewBox="0 0 62 66" fill="none" xmlns="http://www.w3.org/2000/svg">
    <g filter="url(#filter0_f_1202_18)">
        <path d="M30.7373 10L32.4893 25.9687L39.7102 14.0207L35.6902 27.3983L51.7183 14.0207L38.0348 30.0103L57 24.2258L39.1176 33.353L52.6771 36.5497L38.7513 36.8485L55.9495 50.043L36.9994 39.8924L45.9697 53.7312L34.1646 41.9583L35.6902 59L30.7373 42.6891L26.1507 55.882L27.31 41.9583L12.8788 59L24.4753 39.8924L8.79757 46.8817L22.7233 36.8485L5 37.3978L22.3571 33.353L9.75644 27.3983L23.4398 30.0103L8.79757 16.3226L25.7844 27.3983L20.2323 11.0538L28.9854 25.9687L30.7373 10Z" fill="#A62CFF"/>
    </g>
    <g opacity="0.3" filter="url(#filter1_f_1202_18)">
        <path d="M35.1952 10.5554L30.2605 25.8433L25.5961 12.685L26.8371 26.5983L13.8345 10.2646L24.0142 28.6841L6.60416 19.1956L22.2798 31.74L8.3543 32.1379L21.934 35.2376L2.42926 44.6947L23.0365 38.5721L11.4608 50.3187L25.3966 41.167L20.4673 57.5514L28.6062 42.5736L30.4395 56.4202L32.1105 42.5486L42.8105 62.1494L35.3035 41.0965L49.2506 51.1024L37.633 38.4682L54.8818 42.5787L38.6963 35.1183L52.2386 31.8256L38.3096 31.6259L55.4103 21.1705L36.5396 28.595L45.2722 13.705L33.6925 26.5495L35.1952 10.5554Z" fill="#A62CFF"/>
    </g>
    <g filter="url(#filter2_f_1202_18)">
        <path d="M12 18.3797L12.5278 43.8987L31 54L49.4722 43.8987L50 18.3797L30.4722 12L12 18.3797Z" fill="#A62CFF"/>
    </g>
    <defs>
        <filter id="filter0_f_1202_18" x="3" y="8" width="56" height="53" filterUnits="userSpaceOnUse" colorInterpolationFilters="sRGB">
            <feFlood floodOpacity="0" result="BackgroundImageFix"/>
            <feBlend mode="normal" in="SourceGraphic" in2="BackgroundImageFix" result="shape"/>
            <feGaussianBlur stdDeviation="1" result="effect1_foregroundBlur_1202_18"/>
        </filter>
        <filter id="filter1_f_1202_18" x="0.429199" y="8.26465" width="56.981" height="55.8848" filterUnits="userSpaceOnUse" colorInterpolationFilters="sRGB">
            <feFlood floodOpacity="0" result="BackgroundImageFix"/>
            <feBlend mode="normal" in="SourceGraphic" in2="BackgroundImageFix" result="shape"/>
            <feGaussianBlur stdDeviation="1" result="effect1_foregroundBlur_1202_18"/>
        </filter>
        <filter id="filter2_f_1202_18" x="0" y="0" width="62" height="66" filterUnits="userSpaceOnUse" colorInterpolationFilters="sRGB">
            <feFlood floodOpacity="0" result="BackgroundImageFix"/>
            <feBlend mode="normal" in="SourceGraphic" in2="BackgroundImageFix" result="shape"/>
            <feGaussianBlur stdDeviation="6" result="effect1_foregroundBlur_1202_18"/>
        </filter>
    </defs>
</svg>
